// This file is generated automatically. All manually added changes will be removed when running the Converter.
// Map 033-5: Porthos' General Store warps
033-5,29,49,0	warp	#033-5_29_49	0,0,033-1,189,95
