// This file is generated automatically. All manually added changes will be removed when running the Converter.
// Map 010-2-8: Canyon Cave mobs
010-2-8,0,0,0,0	monster	Cave Maggot	1027,4,35000,150000
010-2-8,37,23,4,2	monster	Maggot	1030,2,35000,150000
010-2-8,32,60,4,2	monster	Maggot	1030,2,35000,150000
