// This file is generated automatically. All manually added changes will be removed when running the Converter.
// Map 024-10: Frostia Indoors warps
024-10,34,37,0	warp	#024-10_34_37	0,0,024-1,83,60
024-10,24,37,0	warp	#024-10_24_37	0,0,024-1,77,60
