// This file is generated automatically. All manually added changes will be removed when running the Converter.
// Map 021-1: Ice Labyrinth mobs
021-1,162,100,144,80	monster	White Slime	1094,75,100000,30000
021-1,160,174,127,112	monster	Blue Slime	1087,90,100000,30000
021-1,161,230,147,74	monster	Moggun	1070,62,100000,30000
