// This file is generated automatically. All manually added changes will be removed when running the Converter.
// Map 006-2-3: Mushroom Cavern mobs
006-2-3,44,34,14,13	monster	Piou	1002,6,30000,30000
006-2-3,43,32,8,7	monster	Silk Worm	1034,6,30000,30000
006-2-3,49,34,6,10	monster	Red Butterfly	1025,2,30000,30000
006-2-3,39,34,6,10	monster	Cyan Butterfly	1172,2,30000,30000
