// TMW2/LoF Script.
// Author:
//    Jesusalva
// Notes:
//    Based on BenB idea.

017-5,53,26,0	script	Vault#0175	NPC_NO_SPRITE,{
    LootableVault(1, 5, "0175");
    close;

OnInit:
    .distance=3;
    end;

OnClock0202:
OnClock1419:
    $VAULT_0175+=rand2(21,36);
    end;
}

