// This file is generated automatically. All manually added changes will be removed when running the Converter.
// Map 042-5: Camelot - Sewer Paths warps
042-5,36,99,0	warp	#042-5_36_99	0,0,042-4,67,21
042-5,43,99,0	warp	#042-5_43_99	2,0,042-4,74,21
042-5,59,55,0	warp	#042-5_59_55	0,3,042-6,22,76
042-5,56,20,0	warp	#042-5_56_20	2,0,042-7,21,77
042-5,44,20,0	warp	#042-5_44_20	2,0,042-8,51,78
042-5,20,42,0	warp	#042-5_20_42	0,6,042-9,98,79
