// This file is generated automatically. All manually added changes will be removed when running the Converter.
// Map 025-1: Fortress Town - Holy Land warps
025-1,100,123,0	warp	#025-1_100_123	7,0,025-2,99,25
