// This file is generated automatically. All manually added changes will be removed when running the Converter.
// Map 003-9-1: Tulimshar Theater warps
003-9-1,26,38,0	warp	#003-9-1_26_38	0,0,003-1,72,133
