// This file is generated automatically. All manually added changes will be removed when running the Converter.
// Map 010-1-3: Canyon Cave warps
010-1-3,51,31,0	warp	#010-1-3_51_31	0,0,010-1,70,42
010-1-3,32,50,0	warp	#010-1-3_32_50	0,0,010-1,51,54
010-1-3,53,55,0	warp	#010-1-3_53_55	0,0,010-1,74,56
