// This file is generated automatically. All manually added changes will be removed when running the Converter.
// Map 010-4-2: Canyon Cave mobs
010-4-2,0,0,0,0	monster	Lava Slime	1097,30,35000,150000
010-4-2,87,39,4,2	monster	Maggot	1030,2,35000,150000
