// This file is generated automatically. All manually added changes will be removed when running the Converter.
// Map 017-1: Land Of Fire Village mobs
017-1,105,129,75,76	monster	Cyan Butterfly	1172,40,30000,30000
017-1,125,69,103,47	monster	Squirrel	1053,25,30000,30000
017-1,123,176,103,58	monster	Living Potato	1181,36,30000,30000
017-1,128,122,108,114	monster	Alizarin Plant	1188,45,45000,45000
