// This file is generated automatically. All manually added changes will be removed when running the Converter.
// Map 017-1: Land Of Fire Village warps
017-1,180,193,0	warp	#017-1_180_193	0,0,018-2,63,105
017-1,152,224,0	warp	#017-1_152_224	0,0,018-1,32,68
017-1,119,60,0	warp	#017-1_119_60	0,0,017-2,41,30
017-1,104,103,0	warp	#017-1_104_103	0,0,014-4,95,33
017-1,92,88,0	warp	#017-1_92_88	2,0,017-3,32,44
017-1,150,87,0	warp	#017-1_150_87	0,0,017-4,27,41
017-1,155,87,0	warp	#017-1_155_87	0,0,017-4,35,41
017-1,133,155,0	warp	#017-1_133_155	0,0,017-5,23,33
017-1,37,140,0	warp	#017-1_37_140	0,1,017-6,29,43
017-1,37,155,0	warp	#017-1_37_155	0,1,017-6,29,52
017-1,37,132,0	warp	#017-1_37_132	0,1,017-6,29,31
017-1,230,87,0	warp	#017-1_230_87	0,3,017-0,24,78
