// Map 024-1: Frostia
// This file is generated automatically. All manually added changes will be removed when running the Converter.
"npc/024-1/_mobs.txt",
"npc/024-1/_warps.txt",
"npc/024-1/erlan.txt",
"npc/024-1/guard.txt",
"npc/024-1/john.txt",
"npc/024-1/mapflags.txt",
"npc/024-1/meriel.txt",
"npc/024-1/rydel.txt",
"npc/024-1/soul-menhir.txt",
"npc/024-1/taenya.txt",
"npc/024-1/teleporter.txt",
"npc/024-1/town.txt",
