// This file is generated automatically. All manually added changes will be removed when running the Converter.
// Map 006-2-6: Upper Level mobs
006-2-6,35,31,1,1	monster	Piou	1002,3,30000,30000
006-2-6,41,31,1,1	monster	Piousse	1003,3,30000,30000
