// Evol scripts.
// Authors:
//    Alige
//    Reid
//    Vasily_Makarov
// Description:
//    Sleeping and grumbling NPC.

002-1,32,38,0	script	Devis	NPC_HAMMOC,{
    asleep;
    close;

OnInit:
    .sex = G_MALE;
    .distance = 2;
    end;
}
