// This file is generated automatically. All manually added changes will be removed when running the Converter.
// Map 025-3: The Impregnable Fortress (Outside) mobs
025-3,99,157,75,17	monster	Moubi	1038,16,60000,30000
025-3,105,117,10,21	monster	Angry Bat	1194,24,30000,30000
