// Map 012-1: Hurnscald
// This file is generated automatically. All manually added changes will be removed when running the Converter.
"npc/012-1/_mobs.txt",
"npc/012-1/_warps.txt",
"npc/012-1/andrei.txt",
"npc/012-1/bot.txt",
"npc/012-1/dyrinthetraveler.txt",
"npc/012-1/estate.txt",
"npc/012-1/guards.txt",
"npc/012-1/gwendolyn.txt",
"npc/012-1/hinnak.txt",
"npc/012-1/igor.txt",
"npc/012-1/jack.txt",
"npc/012-1/locamit.txt",
"npc/012-1/luffyx.txt",
"npc/012-1/mahad.txt",
"npc/012-1/mapflags.txt",
"npc/012-1/milly.txt",
"npc/012-1/richard.txt",
"npc/012-1/ship.txt",
"npc/012-1/shoppakep.txt",
"npc/012-1/soul-menhir.txt",
"npc/012-1/statue.txt",
"npc/012-1/terezin.txt",
"npc/012-1/town.txt",
"npc/012-1/wateranimation.txt",
