// Guild Skill Tree Database
//
// Structure of Database:
// SkillID,MaxLv,Prerequisite SkillID1,Prerequisite SkillLv1,PrereqSkillID2,PrereqSkillLv2,PrereqSkillID3,PrereqSkillLv3,PrereqSkillID4,PrereqSkillLv4,PrereqSkillID5,PrereqSkillLv5	//GUILD SKILLNAME#Skill Name#
//
// 01. SkillID                  Skill ID of the guild skill.
// 02. MaxLv                    Maximum level of the guild skill.
// 03. Prerequisite SkillID     Guild skill required for the skill to become available.
// 04. Prerequisite SkillLv     Level of the required guild skill.
// ...
//
// NOTE: MAX_GUILD_SKILL_REQUIRE (typically 5) ID/Lv pairs must be specified.

10000,1,0,0,0,0,0,0,0,0,0,0	//GD_APPROVAL#Official Guild Approval#
10001,1,0,0,0,0,0,0,0,0,0,0	//GD_KAFRACONTRACT#Contract with Kafra#
10002,1,0,0,0,0,0,0,0,0,0,0	//GD_GUARDRESEARCH#Guardian Research#
10003,3,0,0,0,0,0,0,0,0,0,0	//GD_GUARDUP#Strengthen Guardians#
10004,10,0,0,0,0,0,0,0,0,0,0	//GD_EXTENSION#Guild Extension#
10005,0,0,0,0,0,0,0,0,0,0,0	//GD_GLORYGUILD#Guilds Glory#
10006,5,0,0,0,0,0,0,0,0,0,0	//GD_LEADERSHIP#Great Leadership#
10007,5,0,0,0,0,0,0,0,0,0,0	//GD_GLORYWOUNDS#Glorious Wounds#
10008,5,0,0,0,0,0,0,0,0,0,0	//GD_SOULCOLD#Cold Heart#
10009,5,0,0,0,0,0,0,0,0,0,0	//GD_HAWKEYES#Sharp Gaze#
10010,1,0,0,0,0,0,0,0,0,0,0	//GD_BATTLEORDER#Battle Command#
10011,3,0,0,0,0,0,0,0,0,0,0	//GD_REGENERATION#Regeneration#
10012,1,0,0,0,0,0,0,0,0,0,0	//GD_RESTORE#Restoration#
10013,1,0,0,0,0,0,0,0,0,0,0	//GD_EMERGENCYCALL#Urgent Call#
10014,1,0,0,0,0,0,0,0,0,0,0	//GD_DEVELOPMENT#Permanent Development#
