// This file is generated automatically. All manually added changes will be removed when running the Converter.
// Map 010-2-13: Canyon Cave warps
010-2-13,49,25,0	warp	#010-2-13_49_25	0,0,010-2,198,102
010-2-13,34,37,0	warp	#010-2-13_34_37	0,0,010-2,192,108
