// This file is generated automatically. All manually added changes will be removed when running the Converter.
// Map 018-5: Lilit Island warps
018-5,99,82,0	warp	#018-5_99_82	0,0,018-5-1,79,67
018-5,97,68,0	warp	#018-5_97_68	0,0,018-5-1,77,53
018-5,83,48,0	warp	#018-5_83_48	0,0,018-5-3,32,46
018-5,60,146,0	warp	#018-5_60_146	0,0,018-5-1,36,98
018-5,114,54,0	warp	#018-5_114_54	0,0,018-5-2,32,46
018-5,110,46,0	warp	#018-5_110_46	0,0,018-5-4,35,43
