// This file is generated automatically. All manually added changes will be removed when running the Converter.
// Map 004-3-4: Canyon Cave warps
004-3-4,33,40,0	warp	#004-3-4_33_40	0,0,004-3-2,80,80
004-3-4,83,20,0	warp	#004-3-4_83_20	0,0,004-3-2,129,64
