// This file is generated automatically. All manually added changes will be removed when running the Converter.
// Map 009-1: Halinarzo warps
009-1,56,109,0	warp	#009-1_56_109	2,0,010-2,169,20
009-1,119,40,0	warp	#009-1_119_40	0,0,011-1,177,177
009-1,84,63,0	warp	#009-1_84_63	0,0,009-2,62,66
009-1,73,63,0	warp	#009-1_73_63	0,0,009-2,28,65
009-1,86,34,0	warp	#009-1_86_34	0,0,009-3,44,56
009-1,33,62,0	warp	#009-1_33_62	0,0,009-4,48,53
009-1,64,38,0	warp	#009-1_64_38	1,0,009-5,32,41
009-1,81,47,0	warp	#009-1_81_47	0,0,009-8,32,41
