// This file is generated automatically. All manually added changes will be removed when running the Converter.
// Map 025-2-2: Ancient Cave mobs
025-2-2,47,44,17,18	monster	Archant	1026,5,32000,8000
025-2-2,47,47,23,18	monster	Cave Maggot	1027,8,2000,8000
025-2-2,41,30,13,6	monster	Azul Skull Slime	1402,3,75000,20000
025-2-2,51,56,15,7	monster	Black Scorpion	1074,1,4000,8000
025-2-2,60,48,11,14	monster	Crafty	1018,3,50000,2500
025-2-2,36,43,11,7	monster	Crafty	1018,2,50000,2500
