// This file is generated automatically. All manually added changes will be removed when running the Converter.
// Map 021-3: Deeper Snow Cave mobs
021-3,46,90,27,34	monster	Moggun	1070,12,100000,30000
021-3,55,49,21,27	monster	Blue Slime	1087,20,30000,30000
021-3,53,54,25,47	monster	White Slime	1094,15,100000,30000
021-3,54,64,26,26	monster	Yeti	1064,5,100000,30000
