// Map 027-1: The Academy Island
// This file is generated automatically. All manually added changes will be removed when running the Converter.
"npc/027-1/_mobs.txt",
"npc/027-1/_warps.txt",
"npc/027-1/eliza.txt",
"npc/027-1/elza.txt",
"npc/027-1/enzo.txt",
"npc/027-1/ezra.txt",
"npc/027-1/laura.txt",
"npc/027-1/statue.txt",
"npc/027-1/students.txt",
"npc/027-1/students2.txt",
"npc/027-1/wizard.txt",
