// This file is generated automatically. All manually added changes will be removed when running the Converter.
// Map 023-2: Magic Cave mobs
023-2,96,52,17,27	monster	Moggun	1070,15,0,0
023-2,38,77,11,27	monster	Water Fairy	1184,4,0,0
023-2,54,44,21,6	monster	Yeti	1064,5,0,0
023-2,81,61,39,16	monster	Angry Bat	1194,8,0,0
