// This file is generated automatically. All manually added changes will be removed when running the Converter.
// Map 006-4-1: Abandoned Building mobs
006-4-1,55,103,19,9	monster	Mana Ghost	1068,6,75000,250000
006-4-1,55,46,31,11	monster	Green Slime Mother	1236,5,75000,25000
006-4-1,56,101,28,9	monster	Yellow Slime Mother	1239,4,75000,25000
006-4-1,54,151,14,10	monster	Red Slime Mother	1240,3,75000,25000
006-4-1,56,44,31,9	monster	Green Skull Slime	1405,1,75000,25000
