// This file is generated automatically. All manually added changes will be removed when running the Converter.
// Map 019-4: Romantic Place warps
019-4,95,27,0	warp	#019-4_95_27	3,0,019-1,61,101
019-4,133,53,0	warp	#019-4_133_53	0,0,019-4-1,50,45
019-4,54,110,0	warp	#019-4_54_110	1,0,014-5,192,17
