// This file is generated automatically. All manually added changes will be removed when running the Converter.
// Map 017-0: Mystic Forest mobs
017-0,54,49,26,23	monster	Centaur	1139,8,90000,80000
017-0,55,40,32,19	monster	Living Potato	1181,15,60000,45000
017-0,57,76,20,19	monster	Fluffy	1022,8,60000,45000
017-0,171,43,81,19	monster	Living Potato	1181,15,60000,45000
017-0,241,92,43,51	monster	Wind Fairy	1185,11,60000,45000
017-0,222,154,25,49	monster	Nature Fairy	1186,12,60000,45000
017-0,201,182,25,49	monster	Forest Mushroom	1060,13,64000,45000
017-0,163,196,25,29	monster	Tipiu	1015,7,75000,45000
017-0,72,123,26,19	monster	Archant	1026,8,60000,45000
017-0,102,85,19,19	monster	Skeleton	1137,8,70000,45000
017-0,144,107,25,49	monster	Forain	1061,12,75000,45000
017-0,164,89,30,24	monster	Scar	1045,8,75000,45000
017-0,95,178,39,43	monster	Sea Slime Mother	1244,7,90000,45000
017-0,94,123,26,25	monster	Bluepar	1177,8,80000,45000
017-0,237,150,25,24	monster	Red Mushroom	1042,18,75000,45000
017-0,145,127,26,24	monster	Wicked Mushroom	1176,12,75000,45000
017-0,149,98,29,53	monster	Vampire Bat	1063,18,75000,45000
017-0,253,186,6,11	monster	Training Dummy	1021,6,10000,10000
017-0,113,176,11,16	monster	Azul Skull Slime	1402,1,120000,45000
017-0,53,83,43,59	monster	Red Butterfly	1025,30,70000,45000
017-0,262,182,66,63	monster	Red Butterfly	1025,30,70000,45000
017-0,162,121,133,110	monster	Cyan Butterfly	1172,140,70000,30000
017-0,125,131,108,114	monster	Alizarin Plant	1188,45,60000,45000
017-0,161,130,98,102	monster	Cobalt Plant	1136,45,60000,45000
017-0,187,119,98,102	monster	Gamboge Plant	1134,45,60000,45000
017-0,156,143,98,102	monster	Mauve Plant	1135,45,60000,45000
017-0,152,112,31,32	monster	Shadow Plant	1189,25,90000,45000
