// This file is generated automatically. All manually added changes will be removed when running the Converter.
// Map 006-4: Abandoned Island warps
006-4,95,99,0	warp	#006-4_95_99	1,0,006-4-1,58,60
006-4,32,257,0	warp	#006-4_32_257	0,0,006-3,54,36
006-4,71,83,0	warp	#006-4_71_83	1,0,006-4-1,44,31
