// This file is generated automatically. All manually added changes will be removed when running the Converter.
// Map 018-5-4: Duck Island mobs
018-5-4,39,70,16,8	monster	Mana Piou	1155,8,35000,270000
018-5-4,49,56,12,9	monster	Vicious Squirrel	1187,8,35000,120000
018-5-4,35,29,9,6	monster	Piou	1002,6,200000,35000
018-5-4,46,50,26,30	monster	Duck	1029,23,200000,35000
018-5-4,63,50,7,6	monster	Piou	1002,6,200000,35000
018-5-4,44,58,5,5	monster	Forest Piou	1202,4,35000,120000
