// TMW2 scripts.
// Authors:
//    Jesusalva
//    +seeds
// Description:
//    Nurse.

006-2-1,85,71,0	script	Plum	NPC_PIOU_NURSE,{
    Nurse(.name$, 10, 5);
    close;

OnInit:
    .sex = G_OTHER;
    .distance = 5;
    end;
}

