// This file is generated automatically. All manually added changes will be removed when running the Converter.

@include "npc/000-0-0/_import.txt"
@include "npc/000-0-1/_import.txt"
@include "npc/000-0/_import.txt"
@include "npc/000-1/_import.txt"
@include "npc/001-1/_import.txt"
@include "npc/001-10-1/_import.txt"
@include "npc/001-10/_import.txt"
@include "npc/001-11/_import.txt"
@include "npc/001-12/_import.txt"
@include "npc/001-13-0/_import.txt"
@include "npc/001-13-1/_import.txt"
@include "npc/001-13-2/_import.txt"
@include "npc/001-13-3/_import.txt"
@include "npc/001-13-4/_import.txt"
@include "npc/001-13-5/_import.txt"
@include "npc/001-13-6/_import.txt"
@include "npc/001-13/_import.txt"
@include "npc/001-14/_import.txt"
@include "npc/001-2/_import.txt"
@include "npc/001-3-1/_import.txt"
@include "npc/001-3/_import.txt"
@include "npc/001-4/_import.txt"
@include "npc/001-5/_import.txt"
@include "npc/001-6/_import.txt"
@include "npc/001-7/_import.txt"
@include "npc/001-8/_import.txt"
@include "npc/001-9/_import.txt"
@include "npc/002-1/_import.txt"
@include "npc/002-2/_import.txt"
@include "npc/002-3/_import.txt"
@include "npc/002-4/_import.txt"
@include "npc/002-5/_import.txt"
@include "npc/003-0-1/_import.txt"
@include "npc/003-0-2/_import.txt"
@include "npc/003-0-3/_import.txt"
@include "npc/003-0/_import.txt"
@include "npc/003-1-1/_import.txt"
@include "npc/003-1-2/_import.txt"
@include "npc/003-1-3/_import.txt"
@include "npc/003-1/_import.txt"
@include "npc/003-10/_import.txt"
@include "npc/003-11/_import.txt"
@include "npc/003-13/_import.txt"
@include "npc/003-2-1/_import.txt"
@include "npc/003-2/_import.txt"
@include "npc/003-3/_import.txt"
@include "npc/003-4-1/_import.txt"
@include "npc/003-4/_import.txt"
@include "npc/003-5/_import.txt"
@include "npc/003-6/_import.txt"
@include "npc/003-7/_import.txt"
@include "npc/003-8/_import.txt"
@include "npc/003-9-1/_import.txt"
@include "npc/003-9/_import.txt"
@include "npc/004-1/_import.txt"
@include "npc/004-2-1/_import.txt"
@include "npc/004-2-10/_import.txt"
@include "npc/004-2-11/_import.txt"
@include "npc/004-2-12/_import.txt"
@include "npc/004-2-2/_import.txt"
@include "npc/004-2-3/_import.txt"
@include "npc/004-2-4/_import.txt"
@include "npc/004-2-5/_import.txt"
@include "npc/004-2-6/_import.txt"
@include "npc/004-2-7/_import.txt"
@include "npc/004-2-8/_import.txt"
@include "npc/004-2-9/_import.txt"
@include "npc/004-2/_import.txt"
@include "npc/004-3-1/_import.txt"
@include "npc/004-3-2/_import.txt"
@include "npc/004-3-3/_import.txt"
@include "npc/004-3-4/_import.txt"
@include "npc/004-3-5/_import.txt"
@include "npc/004-3-6/_import.txt"
@include "npc/004-3/_import.txt"
@include "npc/005-1-1/_import.txt"
@include "npc/005-1/_import.txt"
@include "npc/005-2-1/_import.txt"
@include "npc/005-2/_import.txt"
@include "npc/005-3/_import.txt"
@include "npc/005-4/_import.txt"
@include "npc/005-5/_import.txt"
@include "npc/005-6/_import.txt"
@include "npc/005-7/_import.txt"
@include "npc/006-0/_import.txt"
@include "npc/006-1/_import.txt"
@include "npc/006-10/_import.txt"
@include "npc/006-2-1/_import.txt"
@include "npc/006-2-2/_import.txt"
@include "npc/006-2-3/_import.txt"
@include "npc/006-2-4/_import.txt"
@include "npc/006-2-5/_import.txt"
@include "npc/006-2-6/_import.txt"
@include "npc/006-2/_import.txt"
@include "npc/006-3/_import.txt"
@include "npc/006-4-1/_import.txt"
@include "npc/006-4/_import.txt"
@include "npc/006-5/_import.txt"
@include "npc/006-6/_import.txt"
@include "npc/006-7/_import.txt"
@include "npc/006-8/_import.txt"
@include "npc/006-9/_import.txt"
@include "npc/007-1-1/_import.txt"
@include "npc/007-1-2/_import.txt"
@include "npc/007-1/_import.txt"
@include "npc/007-2/_import.txt"
@include "npc/008-0/_import.txt"
@include "npc/008-1/_import.txt"
@include "npc/008-2/_import.txt"
@include "npc/009-1/_import.txt"
@include "npc/009-2/_import.txt"
@include "npc/009-3/_import.txt"
@include "npc/009-4/_import.txt"
@include "npc/009-5/_import.txt"
@include "npc/009-6/_import.txt"
@include "npc/009-7/_import.txt"
@include "npc/009-8/_import.txt"
@include "npc/010-1-1/_import.txt"
@include "npc/010-1-10/_import.txt"
@include "npc/010-1-11/_import.txt"
@include "npc/010-1-12/_import.txt"
@include "npc/010-1-2/_import.txt"
@include "npc/010-1-3/_import.txt"
@include "npc/010-1-4/_import.txt"
@include "npc/010-1-5/_import.txt"
@include "npc/010-1-6/_import.txt"
@include "npc/010-1-7/_import.txt"
@include "npc/010-1-8/_import.txt"
@include "npc/010-1-9/_import.txt"
@include "npc/010-1/_import.txt"
@include "npc/010-2-10/_import.txt"
@include "npc/010-2-11/_import.txt"
@include "npc/010-2-12/_import.txt"
@include "npc/010-2-13/_import.txt"
@include "npc/010-2-14/_import.txt"
@include "npc/010-2-15/_import.txt"
@include "npc/010-2-16/_import.txt"
@include "npc/010-2-2/_import.txt"
@include "npc/010-2-3/_import.txt"
@include "npc/010-2-4/_import.txt"
@include "npc/010-2-5/_import.txt"
@include "npc/010-2-6/_import.txt"
@include "npc/010-2-7/_import.txt"
@include "npc/010-2-8/_import.txt"
@include "npc/010-2-9/_import.txt"
@include "npc/010-2/_import.txt"
@include "npc/010-3/_import.txt"
@include "npc/010-4-1/_import.txt"
@include "npc/010-4-2/_import.txt"
@include "npc/011-1/_import.txt"
@include "npc/011-2/_import.txt"
@include "npc/011-3/_import.txt"
@include "npc/011-4/_import.txt"
@include "npc/012-1/_import.txt"
@include "npc/012-2/_import.txt"
@include "npc/012-3/_import.txt"
@include "npc/012-4/_import.txt"
@include "npc/012-5/_import.txt"
@include "npc/012-6/_import.txt"
@include "npc/012-7/_import.txt"
@include "npc/012-8/_import.txt"
@include "npc/013-1/_import.txt"
@include "npc/014-1/_import.txt"
@include "npc/014-2-1/_import.txt"
@include "npc/014-2-2/_import.txt"
@include "npc/014-2/_import.txt"
@include "npc/014-3/_import.txt"
@include "npc/014-4/_import.txt"
@include "npc/014-5-1/_import.txt"
@include "npc/014-5/_import.txt"
@include "npc/015-1/_import.txt"
@include "npc/015-2/_import.txt"
@include "npc/015-3-1/_import.txt"
@include "npc/015-3-2/_import.txt"
@include "npc/015-3-3/_import.txt"
@include "npc/015-3/_import.txt"
@include "npc/015-4/_import.txt"
@include "npc/015-5/_import.txt"
@include "npc/015-6/_import.txt"
@include "npc/015-7/_import.txt"
@include "npc/015-8-1/_import.txt"
@include "npc/015-8/_import.txt"
@include "npc/016-1/_import.txt"
@include "npc/016-6/_import.txt"
@include "npc/016-7/_import.txt"
@include "npc/016-8/_import.txt"
@include "npc/017-0/_import.txt"
@include "npc/017-1/_import.txt"
@include "npc/017-10/_import.txt"
@include "npc/017-2-1/_import.txt"
@include "npc/017-2-2/_import.txt"
@include "npc/017-2/_import.txt"
@include "npc/017-3/_import.txt"
@include "npc/017-4/_import.txt"
@include "npc/017-5/_import.txt"
@include "npc/017-6/_import.txt"
@include "npc/017-7/_import.txt"
@include "npc/017-8/_import.txt"
@include "npc/018-1-1/_import.txt"
@include "npc/018-1/_import.txt"
@include "npc/018-2-1/_import.txt"
@include "npc/018-2-2/_import.txt"
@include "npc/018-2-3/_import.txt"
@include "npc/018-2-4/_import.txt"
@include "npc/018-2-5/_import.txt"
@include "npc/018-2-6/_import.txt"
@include "npc/018-2-7/_import.txt"
@include "npc/018-2-8/_import.txt"
@include "npc/018-2/_import.txt"
@include "npc/018-3/_import.txt"
@include "npc/018-4-1/_import.txt"
@include "npc/018-4-2/_import.txt"
@include "npc/018-4/_import.txt"
@include "npc/018-5-0/_import.txt"
@include "npc/018-5-1/_import.txt"
@include "npc/018-5-2/_import.txt"
@include "npc/018-5-3/_import.txt"
@include "npc/018-5-4/_import.txt"
@include "npc/018-5-5/_import.txt"
@include "npc/018-5-6/_import.txt"
@include "npc/018-5-boss/_import.txt"
@include "npc/018-5/_import.txt"
@include "npc/018-6-0/_import.txt"
@include "npc/018-6-1/_import.txt"
@include "npc/018-6-2/_import.txt"
@include "npc/018-6-3/_import.txt"
@include "npc/018-7-1/_import.txt"
@include "npc/018-7/_import.txt"
@include "npc/018-8/_import.txt"
@include "npc/019-1-1/_import.txt"
@include "npc/019-1/_import.txt"
@include "npc/019-2/_import.txt"
@include "npc/019-3/_import.txt"
@include "npc/019-4-1/_import.txt"
@include "npc/019-4/_import.txt"
@include "npc/019-5-1/_import.txt"
@include "npc/019-5-2/_import.txt"
@include "npc/019-5-3/_import.txt"
@include "npc/019-5/_import.txt"
@include "npc/019-6/_import.txt"
@include "npc/020-1/_import.txt"
@include "npc/020-2/_import.txt"
@include "npc/020-3/_import.txt"
@include "npc/020-4/_import.txt"
@include "npc/020-5/_import.txt"
@include "npc/020-6/_import.txt"
@include "npc/020-7-1/_import.txt"
@include "npc/020-7-2/_import.txt"
@include "npc/020-7/_import.txt"
@include "npc/020-8/_import.txt"
@include "npc/021-0/_import.txt"
@include "npc/021-1/_import.txt"
@include "npc/021-2/_import.txt"
@include "npc/021-3/_import.txt"
@include "npc/021-4/_import.txt"
@include "npc/022-1/_import.txt"
@include "npc/023-1/_import.txt"
@include "npc/023-2/_import.txt"
@include "npc/023-3-1/_import.txt"
@include "npc/023-3-2/_import.txt"
@include "npc/023-3/_import.txt"
@include "npc/023-4/_import.txt"
@include "npc/024-1/_import.txt"
@include "npc/024-10/_import.txt"
@include "npc/024-11/_import.txt"
@include "npc/024-12/_import.txt"
@include "npc/024-13/_import.txt"
@include "npc/024-14/_import.txt"
@include "npc/024-15/_import.txt"
@include "npc/024-16/_import.txt"
@include "npc/024-2/_import.txt"
@include "npc/024-3/_import.txt"
@include "npc/024-4/_import.txt"
@include "npc/024-5/_import.txt"
@include "npc/024-6/_import.txt"
@include "npc/024-7/_import.txt"
@include "npc/024-8/_import.txt"
@include "npc/024-9/_import.txt"
@include "npc/025-1/_import.txt"
@include "npc/025-2-1/_import.txt"
@include "npc/025-2-2/_import.txt"
@include "npc/025-2-3/_import.txt"
@include "npc/025-2-4/_import.txt"
@include "npc/025-2/_import.txt"
@include "npc/025-3/_import.txt"
@include "npc/025-4-1/_import.txt"
@include "npc/025-4/_import.txt"
@include "npc/026-0/_import.txt"
@include "npc/026-1/_import.txt"
@include "npc/026-2/_import.txt"
@include "npc/026-3/_import.txt"
@include "npc/026-6/_import.txt"
@include "npc/026-7/_import.txt"
@include "npc/027-0/_import.txt"
@include "npc/027-1/_import.txt"
@include "npc/027-2/_import.txt"
@include "npc/027-3/_import.txt"
@include "npc/027-4/_import.txt"
@include "npc/027-5/_import.txt"
@include "npc/027-6/_import.txt"
@include "npc/027-7/_import.txt"
@include "npc/029-0/_import.txt"
@include "npc/029-1/_import.txt"
@include "npc/029-2/_import.txt"
@include "npc/029-3/_import.txt"
@include "npc/029-4/_import.txt"
@include "npc/029-5/_import.txt"
@include "npc/029-6/_import.txt"
@include "npc/029-7/_import.txt"
@include "npc/029-8/_import.txt"
@include "npc/029-9/_import.txt"
@include "npc/030-01/_import.txt"
@include "npc/030-02/_import.txt"
@include "npc/030-03/_import.txt"
@include "npc/030-04/_import.txt"
@include "npc/030-05/_import.txt"
@include "npc/030-06/_import.txt"
@include "npc/030-07/_import.txt"
@include "npc/030-08/_import.txt"
@include "npc/030-09/_import.txt"
@include "npc/030-10/_import.txt"
@include "npc/030-11/_import.txt"
@include "npc/030-12/_import.txt"
@include "npc/030-13/_import.txt"
@include "npc/030-14/_import.txt"
@include "npc/030-15/_import.txt"
@include "npc/030-16/_import.txt"
@include "npc/030-17/_import.txt"
@include "npc/030-18/_import.txt"
@include "npc/030-19/_import.txt"
@include "npc/030-20/_import.txt"
@include "npc/030-21/_import.txt"
@include "npc/030-22/_import.txt"
@include "npc/030-23/_import.txt"
@include "npc/030-24/_import.txt"
@include "npc/030-25/_import.txt"
@include "npc/030-26/_import.txt"
@include "npc/030-27/_import.txt"
@include "npc/030-28/_import.txt"
@include "npc/030-29/_import.txt"
@include "npc/030-30/_import.txt"
@include "npc/030-31/_import.txt"
@include "npc/030-32/_import.txt"
@include "npc/030-33/_import.txt"
@include "npc/030-34/_import.txt"
@include "npc/030-35/_import.txt"
@include "npc/030-36/_import.txt"
@include "npc/030-37/_import.txt"
@include "npc/030-38/_import.txt"
@include "npc/030-39/_import.txt"
@include "npc/030-40/_import.txt"
@include "npc/030-41/_import.txt"
@include "npc/030-42/_import.txt"
@include "npc/030-43/_import.txt"
@include "npc/030-44/_import.txt"
@include "npc/030-45/_import.txt"
@include "npc/030-46/_import.txt"
@include "npc/030-47/_import.txt"
@include "npc/030-48/_import.txt"
@include "npc/030-49/_import.txt"
@include "npc/030-50/_import.txt"
@include "npc/030-51/_import.txt"
@include "npc/030-52/_import.txt"
@include "npc/030-53/_import.txt"
@include "npc/030-54/_import.txt"
@include "npc/030-55/_import.txt"
@include "npc/030-56/_import.txt"
@include "npc/030-57/_import.txt"
@include "npc/030-58/_import.txt"
@include "npc/030-59/_import.txt"
@include "npc/030-60/_import.txt"
@include "npc/030-61/_import.txt"
@include "npc/030-62/_import.txt"
@include "npc/030-63/_import.txt"
@include "npc/030-64/_import.txt"
@include "npc/030-65/_import.txt"
@include "npc/030-66/_import.txt"
@include "npc/030-67/_import.txt"
@include "npc/030-68/_import.txt"
@include "npc/030-69/_import.txt"
@include "npc/030-70/_import.txt"
@include "npc/030-71/_import.txt"
@include "npc/030-72/_import.txt"
@include "npc/030-73/_import.txt"
@include "npc/030-74/_import.txt"
@include "npc/030-75/_import.txt"
@include "npc/031-0/_import.txt"
@include "npc/031-1/_import.txt"
@include "npc/031-2/_import.txt"
@include "npc/031-3/_import.txt"
@include "npc/031-4/_import.txt"
@include "npc/031-5/_import.txt"
@include "npc/031-6/_import.txt"
@include "npc/031-7/_import.txt"
@include "npc/031-8/_import.txt"
@include "npc/031-9/_import.txt"
@include "npc/032-1/_import.txt"
@include "npc/032-2/_import.txt"
@include "npc/032-3/_import.txt"
@include "npc/032-4/_import.txt"
@include "npc/032-5/_import.txt"
@include "npc/033-1/_import.txt"
@include "npc/033-2/_import.txt"
@include "npc/033-3/_import.txt"
@include "npc/033-4/_import.txt"
@include "npc/033-5/_import.txt"
@include "npc/034-1/_import.txt"
@include "npc/034-2/_import.txt"
@include "npc/034-3/_import.txt"
@include "npc/034-4/_import.txt"
@include "npc/042-0/_import.txt"
@include "npc/042-1/_import.txt"
@include "npc/042-10/_import.txt"
@include "npc/042-11/_import.txt"
@include "npc/042-2/_import.txt"
@include "npc/042-3/_import.txt"
@include "npc/042-4/_import.txt"
@include "npc/042-5/_import.txt"
@include "npc/042-6/_import.txt"
@include "npc/042-7/_import.txt"
@include "npc/042-8/_import.txt"
@include "npc/042-9/_import.txt"
@include "npc/boss/_import.txt"
@include "npc/botcheck/_import.txt"
@include "npc/guilds/_import.txt"
@include "npc/sec_pri/_import.txt"
@include "npc/soren-2/_import.txt"
@include "npc/soren/_import.txt"
